<svg width="146" height="100" viewBox="0 0 146 100" fill="none" xmlns="http://www.w3.org/2000/svg">
<path d="M85.7765 47.7215C100.405 32.827 103.73 23.7131 103.73 23.7131L102.223 22.827C96.6814 31.097 83.8704 44.5992 83.8704 44.5992L98.6763 20.7173L97.435 20L88.9682 30.3376L93.9331 17.9325L91.9826 16.7932L86.0425 22.9114C83.6931 26.8776 79.4818 35.3165 79.4818 35.3165C77.354 38.5654 79.8808 36.0337 75.6252 41.4346C77.9303 44.3882 80.4127 47.5105 82.8508 50.5063C84.0477 49.2405 84.5353 48.9873 85.7765 47.7215ZM51.4659 11.9831L51.6432 9.32489C48.9392 4.3038 44.9052 0.843882 44.3733 0.379747C44.196 0.464135 44.063 0.548523 43.8857 0.632911C40.96 2.27848 37.9899 3.79747 34.9312 5.18987C34.8869 5.23207 34.8426 5.14768 34.8869 5.10548C36.926 3.67089 38.9651 2.19409 40.96 0.632911L40.029 0L30.2323 5.90717C30.2323 5.90717 30.72 6.83544 31.0303 7.38397C29.3014 8.52321 27.5283 9.87342 21.9872 12.0253C15.5595 14.5148 0 17.5105 0 17.5105C5.31947 34.7679 20.5243 42.2785 20.5243 42.2785C20.5243 42.2785 23.849 33.2067 25.4448 30.5063C27.085 27.8059 33.4684 20.6329 33.4684 20.6329C34.3993 20.3376 35.9065 20.8439 35.9065 20.8439L51.4659 11.9831ZM30.0994 20.7173C28.5478 22.9536 26.8633 25.1477 25.1345 27.2574C24.115 28.7342 23.0954 30.211 22.0315 31.6456C20.5686 34.8101 19.4604 38.3122 19.4604 38.3122C7.44726 31.3924 3.41333 18.692 3.41333 18.692L6.56069 18.1857C6.56069 18.1857 6.02874 21.0127 7.89055 23.2911C9.75237 25.5696 10.9049 25.9916 13.343 26.4979C15.7368 27.0042 14.5399 27.8481 18.1749 28.7342C18.4852 28.8186 18.7955 28.8608 19.1058 28.903C22.9181 26.3713 26.7747 23.8819 30.0107 20.6751C30.055 20.5907 30.1437 20.6751 30.0994 20.7173ZM65.5182 35.2743C65.5182 35.2743 61.3069 26.7932 58.9575 22.8692L53.0174 16.7511L50.8453 18.0591L55.6772 30.5485L47.299 20.1266L46.0578 20.8439L60.5977 44.8523C60.5977 44.8523 47.9639 31.2658 42.5115 22.9536L41.2259 23.7131C41.2259 23.7131 50.402 39.4937 64.9863 54.3882C78.9499 68.6498 89.8548 81.3502 93.7557 98.5654C93.7557 98.5654 105.547 103.671 110.246 94.5991C110.246 94.5991 95.3959 72.7848 93.2681 70.2954C91.229 67.8059 71.4139 44.3038 65.5182 35.2743ZM98.0556 91.4346C98.4546 92.1097 98.8979 93.5021 99.5185 93.9662C99.9618 94.3038 101.203 94.3882 101.735 94.5148C102.843 94.7679 103.907 94.8523 105.015 94.9789C105.459 95.0211 105.769 95.654 105.281 95.865C103.375 96.7932 100.804 98.0169 98.6319 97.8059C96.2825 97.5949 96.0165 95.7806 95.6176 93.9662C94.465 88.692 92.2042 83.8819 89.6331 79.0717C89.6331 79.0295 89.6775 78.9873 89.6775 79.0295C92.2042 82.0675 94.2877 85.2321 96.2825 88.6076C96.8588 89.5359 97.4794 90.4641 98.0556 91.4346ZM123.013 12.0253C119.555 10.6751 117.56 9.66245 116.098 8.77637C115.743 8.64979 115.433 8.48101 115.122 8.35443C111.975 6.96202 109.138 5.14768 106.345 3.20675C106.301 3.16456 106.345 3.08017 106.389 3.12236C109.138 4.3038 112.064 5.23207 114.989 6.03375L105.414 0.168776L103.552 1.51899C102.489 1.01266 101.513 0.590717 100.715 0.337553C100.715 0.337553 96.2825 3.92405 93.4011 9.32489L93.5784 11.9831L109.094 20.8439C109.094 20.8439 110.601 20.3376 111.532 20.6329C111.532 20.6329 118.27 27.384 119.644 29.6624C121.506 32.7848 124.52 42.2785 124.52 42.2785C124.52 42.2785 139.769 34.7679 145.044 17.5105C145 17.5105 129.441 14.5148 123.013 12.0253ZM140.611 22.1097C138.572 26.2869 134.006 33.7553 125.717 38.3966C125.717 38.3966 124.653 34.9367 123.234 31.8143C122.747 30.9705 122.215 30.1688 121.639 29.3671C120.309 27.5949 118.491 26.2447 117.206 24.4726C117.161 24.4304 117.25 24.346 117.294 24.3882C118.757 25.6118 120.486 26.3713 122.082 27.4262C123.146 27.8903 124.298 28.27 125.451 28.5232C127.091 28.8608 128.377 28.6498 129.529 27.9747C130.061 27.6371 130.283 27.3418 130.77 27.0464C130.859 26.962 130.948 26.8776 131.036 26.8354C131.302 26.5823 131.613 26.5823 131.834 26.7089C131.879 26.7089 131.923 26.7089 131.967 26.6667C134.184 26.2025 135.336 25.865 136.976 24.0506C137.42 23.4599 137.819 22.8692 138.218 22.2785C138.705 21.2236 138.838 20.1688 138.838 19.4515C137.198 18.8608 135.602 18.2278 134.006 17.5527C133.962 17.5527 134.006 17.5105 134.006 17.5105C136.489 17.8481 138.971 18.1435 141.498 18.5654C142.119 18.6498 142.252 19.3671 142.03 19.789C141.631 20.5485 141.143 21.3502 140.611 22.1097ZM66.7151 66.3713C65.3409 67.2152 64.0553 68.9029 62.8585 70.0422C60.1101 72.7004 57.7163 75.5274 55.4112 78.5232C55.3669 78.6076 55.2339 78.5232 55.2782 78.4388C57.0957 75.2743 59.0905 72.2363 60.9523 69.1139C61.8832 67.5949 63.3461 66.0338 64.0553 64.4304C64.277 63.9662 64.41 63.5443 64.543 63.1224C64.4986 63.0802 64.4986 63.0802 64.4543 63.038C64.011 63.4177 63.5234 63.7553 63.0358 64.0928C61.174 65.443 59.5781 67.0042 57.9379 68.6076C57.8936 68.6498 57.805 68.6076 57.8493 68.5232C59.1348 66.6667 60.376 64.8523 61.174 62.7426C61.3956 62.1519 61.6173 61.519 61.8832 60.9283C61.3069 60.5485 60.642 60.211 59.9771 59.9578C55.1009 65.865 52.5298 69.2405 51.6432 70.2954C49.5154 72.7848 34.6652 94.5991 34.6652 94.5991C39.3641 103.671 51.1556 98.5654 51.1556 98.5654C53.9483 86.2447 58.8689 77.6793 67.4243 67.7637C67.247 67.2996 66.9811 66.8354 66.7151 66.3713ZM49.3381 92.7848C49.0278 94.0506 48.5402 95.4852 47.698 96.5401C46.8114 97.5949 45.7475 97.8903 44.329 97.8481C42.2012 97.7637 41.3589 96.962 39.7187 95.9916C39.2311 95.6962 39.4528 95.0211 39.9847 94.9789C40.6053 94.9789 41.6692 94.4726 42.3785 94.3038C42.9104 94.1772 43.4867 94.0928 44.063 94.0506C44.4176 94.0084 44.8609 94.0928 45.2599 94.0084C45.1269 93.924 45.7918 93.2911 45.9248 93.2067C46.9444 92.1097 48.1412 91.2658 49.0722 90.0844C49.8257 89.1561 50.4464 88.1013 51.0226 87.0886C51.067 87.0464 51.1113 87.0886 51.1113 87.1308C50.4907 88.9873 49.7814 90.8439 49.3381 92.7848Z" fill="white"/>
<mask id="mask0" mask-type="alpha" maskUnits="userSpaceOnUse" x="0" y="0" width="146" height="100">
<path d="M85.7765 47.7215C100.405 32.827 103.73 23.7131 103.73 23.7131L102.223 22.827C96.6814 31.097 83.8704 44.5992 83.8704 44.5992L98.6763 20.7173L97.435 20L88.9682 30.3376L93.9331 17.9325L91.9826 16.7932L86.0425 22.9114C83.6931 26.8776 79.4818 35.3165 79.4818 35.3165C77.354 38.5654 79.8808 36.0337 75.6252 41.4346C77.9303 44.3882 80.4127 47.5105 82.8508 50.5063C84.0477 49.2405 84.5353 48.9873 85.7765 47.7215ZM51.4659 11.9831L51.6432 9.32489C48.9392 4.3038 44.9052 0.843882 44.3733 0.379747C44.196 0.464135 44.063 0.548523 43.8857 0.632911C40.96 2.27848 37.9899 3.79747 34.9312 5.18987C34.8869 5.23207 34.8426 5.14768 34.8869 5.10548C36.926 3.67089 38.9651 2.19409 40.96 0.632911L40.029 0L30.2323 5.90717C30.2323 5.90717 30.72 6.83544 31.0303 7.38397C29.3014 8.52321 27.5283 9.87342 21.9872 12.0253C15.5595 14.5148 0 17.5105 0 17.5105C5.31947 34.7679 20.5243 42.2785 20.5243 42.2785C20.5243 42.2785 23.849 33.2067 25.4448 30.5063C27.085 27.8059 33.4684 20.6329 33.4684 20.6329C34.3993 20.3376 35.9065 20.8439 35.9065 20.8439L51.4659 11.9831ZM30.0994 20.7173C28.5478 22.9536 26.8633 25.1477 25.1345 27.2574C24.115 28.7342 23.0954 30.211 22.0315 31.6456C20.5686 34.8101 19.4604 38.3122 19.4604 38.3122C7.44726 31.3924 3.41333 18.692 3.41333 18.692L6.56069 18.1857C6.56069 18.1857 6.02874 21.0127 7.89055 23.2911C9.75237 25.5696 10.9049 25.9916 13.343 26.4979C15.7368 27.0042 14.5399 27.8481 18.1749 28.7342C18.4852 28.8186 18.7955 28.8608 19.1058 28.903C22.9181 26.3713 26.7747 23.8819 30.0107 20.6751C30.055 20.5907 30.1437 20.6751 30.0994 20.7173ZM65.5182 35.2743C65.5182 35.2743 61.3069 26.7932 58.9575 22.8692L53.0174 16.7511L50.8453 18.0591L55.6772 30.5485L47.299 20.1266L46.0578 20.8439L60.5977 44.8523C60.5977 44.8523 47.9639 31.2658 42.5115 22.9536L41.2259 23.7131C41.2259 23.7131 50.402 39.4937 64.9863 54.3882C78.9499 68.6498 89.8548 81.3502 93.7557 98.5654C93.7557 98.5654 105.547 103.671 110.246 94.5991C110.246 94.5991 95.3959 72.7848 93.2681 70.2954C91.229 67.8059 71.4139 44.3038 65.5182 35.2743ZM98.0556 91.4346C98.4546 92.1097 98.8979 93.5021 99.5185 93.9662C99.9618 94.3038 101.203 94.3882 101.735 94.5148C102.843 94.7679 103.907 94.8523 105.015 94.9789C105.459 95.0211 105.769 95.654 105.281 95.865C103.375 96.7932 100.804 98.0169 98.6319 97.8059C96.2825 97.5949 96.0165 95.7806 95.6176 93.9662C94.465 88.692 92.2042 83.8819 89.6331 79.0717C89.6331 79.0295 89.6775 78.9873 89.6775 79.0295C92.2042 82.0675 94.2877 85.2321 96.2825 88.6076C96.8588 89.5359 97.4794 90.4641 98.0556 91.4346ZM123.013 12.0253C119.555 10.6751 117.56 9.66245 116.098 8.77637C115.743 8.64979 115.433 8.48101 115.122 8.35443C111.975 6.96202 109.138 5.14768 106.345 3.20675C106.301 3.16456 106.345 3.08017 106.389 3.12236C109.138 4.3038 112.064 5.23207 114.989 6.03375L105.414 0.168776L103.552 1.51899C102.489 1.01266 101.513 0.590717 100.715 0.337553C100.715 0.337553 96.2825 3.92405 93.4011 9.32489L93.5784 11.9831L109.094 20.8439C109.094 20.8439 110.601 20.3376 111.532 20.6329C111.532 20.6329 118.27 27.384 119.644 29.6624C121.506 32.7848 124.52 42.2785 124.52 42.2785C124.52 42.2785 139.769 34.7679 145.044 17.5105C145 17.5105 129.441 14.5148 123.013 12.0253ZM140.611 22.1097C138.572 26.2869 134.006 33.7553 125.717 38.3966C125.717 38.3966 124.653 34.9367 123.234 31.8143C122.747 30.9705 122.215 30.1688 121.639 29.3671C120.309 27.5949 118.491 26.2447 117.206 24.4726C117.161 24.4304 117.25 24.346 117.294 24.3882C118.757 25.6118 120.486 26.3713 122.082 27.4262C123.146 27.8903 124.298 28.27 125.451 28.5232C127.091 28.8608 128.377 28.6498 129.529 27.9747C130.061 27.6371 130.283 27.3418 130.77 27.0464C130.859 26.962 130.948 26.8776 131.036 26.8354C131.302 26.5823 131.613 26.5823 131.834 26.7089C131.879 26.7089 131.923 26.7089 131.967 26.6667C134.184 26.2025 135.336 25.865 136.976 24.0506C137.42 23.4599 137.819 22.8692 138.218 22.2785C138.705 21.2236 138.838 20.1688 138.838 19.4515C137.198 18.8608 135.602 18.2278 134.006 17.5527C133.962 17.5527 134.006 17.5105 134.006 17.5105C136.489 17.8481 138.971 18.1435 141.498 18.5654C142.119 18.6498 142.252 19.3671 142.03 19.789C141.631 20.5485 141.143 21.3502 140.611 22.1097ZM66.7151 66.3713C65.3409 67.2152 64.0553 68.9029 62.8585 70.0422C60.1101 72.7004 57.7163 75.5274 55.4112 78.5232C55.3669 78.6076 55.2339 78.5232 55.2782 78.4388C57.0957 75.2743 59.0905 72.2363 60.9523 69.1139C61.8832 67.5949 63.3461 66.0338 64.0553 64.4304C64.277 63.9662 64.41 63.5443 64.543 63.1224C64.4986 63.0802 64.4986 63.0802 64.4543 63.038C64.011 63.4177 63.5234 63.7553 63.0358 64.0928C61.174 65.443 59.5781 67.0042 57.9379 68.6076C57.8936 68.6498 57.805 68.6076 57.8493 68.5232C59.1348 66.6667 60.376 64.8523 61.174 62.7426C61.3956 62.1519 61.6173 61.519 61.8832 60.9283C61.3069 60.5485 60.642 60.211 59.9771 59.9578C55.1009 65.865 52.5298 69.2405 51.6432 70.2954C49.5154 72.7848 34.6652 94.5991 34.6652 94.5991C39.3641 103.671 51.1556 98.5654 51.1556 98.5654C53.9483 86.2447 58.8689 77.6793 67.4243 67.7637C67.247 67.2996 66.9811 66.8354 66.7151 66.3713ZM49.3381 92.7848C49.0278 94.0506 48.5402 95.4852 47.698 96.5401C46.8114 97.5949 45.7475 97.8903 44.329 97.8481C42.2012 97.7637 41.3589 96.962 39.7187 95.9916C39.2311 95.6962 39.4528 95.0211 39.9847 94.9789C40.6053 94.9789 41.6692 94.4726 42.3785 94.3038C42.9104 94.1772 43.4867 94.0928 44.063 94.0506C44.4176 94.0084 44.8609 94.0928 45.2599 94.0084C45.1269 93.924 45.7918 93.2911 45.9248 93.2067C46.9444 92.1097 48.1412 91.2658 49.0722 90.0844C49.8257 89.1561 50.4464 88.1013 51.0226 87.0886C51.067 87.0464 51.1113 87.0886 51.1113 87.1308C50.4907 88.9873 49.7814 90.8439 49.3381 92.7848Z" fill="white"/>
</mask>
<g mask="url(#mask0)">
<path d="M54 14.5L37.5 24.5L31.5 111.5H116L110 24.5L92.5 14.5H54Z" fill="#E27945"/>
</g>
</svg>
